{
  "images" : [
    {
      "idiom" : "watch",
      "scale" : "2x",
      "screen-width" : "<=145",
      "filename" : "ultarian_38.png"
    },
    {
      "idiom" : "watch",
      "scale" : "2x",
      "screen-width" : ">161",
      "filename" : "ultarian_40_42.png"
    },
    {
      "idiom" : "watch",
      "scale" : "2x",
      "filename" : "ultarian_40_42.png",
      "screen-width" : ">145"
    },
    {
      "idiom" : "watch",
      "scale" : "2x",
      "filename" : "ultarian_44.png",
      "screen-width" : ">183"
    }
  ],
  "info" : {
    "version" : 1,
    "author" : "xcode"
  }
}
